User Guide: 3 Debugging ggplots
…
old_theme <- theme_set(theme_bw())

Introduction

The motivation for writing these stats and geoms is that at the moment it is in many cases not possible to set breakpoints inside the code of stats and geoms. This can make it tedious to see how these functions work, as one may need to add print statements to their source code to achieve this. I wrote these functions as tools to help in the development of this package itself, and as a way of learning myself how data are passed around within the different components of a ggplot object when it is printed.

The stats described in this vignette are very simple and print a summary of their data input to the console. In addition they also return a data frame containing labels suitable for plotting with geom “text” or geom “label”. However, starting from version 0.2.7 of the package the default geom is “null”. The values are listed to the console at the time when the ggplot object is printed.

As shown here, no other geom or stat is required, however in the remaining examples we include geom_point() to make the data on the plot visible.

ggplot(my.data, aes(x, y)) + stat_debug_group()

## [1] "Input 'data' to 'compute_group()':"
## # A tibble: 100 x 4
##        x        y PANEL group
##  * <dbl>    <dbl> <int> <int>
##  1     1  -27205.     1    -1
##  2     2  -14243.     1    -1
##  3     3   45791.     1    -1
##  4     4   53731.     1    -1
##  5     5   -8029.     1    -1
##  6     6  102864.     1    -1
##  7     7  -18547.     1    -1
##  8     8   13081.     1    -1
##  9     9   79924.     1    -1
## 10    10  -44711.     1    -1
## # ... with 90 more rows
…
In the absence of facets or groups we get just get the summary from one data frame.

ggplot(my.data, aes(x, y)) + geom_point() + stat_debug_group()

## [1] "Input 'data' to 'compute_group()':"
## # A tibble: 100 x 4
##        x        y PANEL group
##  * <dbl>    <dbl> <int> <int>
##  1     1  -27205.     1    -1
##  2     2  -14243.     1    -1
##  3     3   45791.     1    -1
##  4     4   53731.     1    -1
##  5     5   -8029.     1    -1
##  6     6  102864.     1    -1
##  7     7  -18547.     1    -1
##  8     8   13081.     1    -1
##  9     9   79924.     1    -1
## 10    10  -44711.     1    -1
## # ... with 90 more rows
…
ggplot(my.data, aes(x, y)) + geom_point() + stat_debug_panel()

## [1] "Input 'data' to 'compute_panel()':"
## # A tibble: 100 x 4
##        x        y PANEL group
##    <dbl>    <dbl> <int> <int>
##  1     1  -27205.     1    -1
##  2     2  -14243.     1    -1
##  3     3   45791.     1    -1
##  4     4   53731.     1    -1
##  5     5   -8029.     1    -1
##  6     6  102864.     1    -1
##  7     7  -18547.     1    -1
##  8     8   13081.     1    -1
##  9     9   79924.     1    -1
## 10    10  -44711.     1    -1
## # ... with 90 more rows
…
In the case of grouping then one data frame is summarized for each group in the ggplot object.

ggplot(my.data, aes(x, y, colour = group)) + geom_point() + 
  stat_debug_group()

## [1] "Input 'data' to 'compute_group()':"
## # A tibble: 50 x 5
##        x       y colour PANEL group
##  * <dbl>   <dbl> <fct>  <int> <int>
##  1     1 -27205. A          1     1
##  2     3  45791. A          1     1
##  3     5  -8029. A          1     1
##  4     7 -18547. A          1     1
##  5     9  79924. A          1     1
##  6    11  -2824. A          1     1
##  7    13 -78017. A          1     1
##  8    15 -74281. A          1     1
##  9    17   9904. A          1     1
## 10    19 -94023. A          1     1
## # ... with 40 more rows
## [1] "Input 'data' to 'compute_group()':"
## # A tibble: 50 x 5
##        x        y colour PANEL group
##  * <dbl>    <dbl> <fct>  <int> <int>
##  1     2  -14243. B          1     2
##  2     4   53731. B          1     2
##  3     6  102864. B          1     2
##  4     8   13081. B          1     2
##  5    10  -44711. B          1     2
##  6    12   23840. B          1     2
##  7    14   75602. B          1     2
##  8    16  104677. B          1     2
##  9    18  -68747. B          1     2
## 10    20  -39230. B          1     2
## # ... with 40 more rows
…
Without facets, we still have only one panel.

ggplot(my.data, aes(x, y, colour = group)) + geom_point() + 
  stat_debug_panel()

## [1] "Input 'data' to 'compute_panel()':"
## # A tibble: 100 x 5
##        x        y colour PANEL group
##    <dbl>    <dbl> <fct>  <int> <int>
##  1     1  -27205. A          1     1
##  2     2  -14243. B          1     2
##  3     3   45791. A          1     1
##  4     4   53731. B          1     2
##  5     5   -8029. A          1     1
##  6     6  102864. B          1     2
##  7     7  -18547. A          1     1
##  8     8   13081. B          1     2
##  9     9   79924. A          1     1
## 10    10  -44711. B          1     2
## # ... with 90 more rows
…
The data are similar, except for the column named after the aesthetic, for the aesthetics used for grouping.

ggplot(my.data, aes(x, y, shape = group)) + geom_point() + 
  stat_debug_group()

## [1] "Input 'data' to 'compute_group()':"
## # A tibble: 50 x 5
##        x       y shape PANEL group
##  * <dbl>   <dbl> <fct> <int> <int>
##  1     1 -27205. A         1     1
##  2     3  45791. A         1     1
##  3     5  -8029. A         1     1
##  4     7 -18547. A         1     1
##  5     9  79924. A         1     1
##  6    11  -2824. A         1     1
##  7    13 -78017. A         1     1
##  8    15 -74281. A         1     1
##  9    17   9904. A         1     1
## 10    19 -94023. A         1     1
## # ... with 40 more rows
## [1] "Input 'data' to 'compute_group()':"
## # A tibble: 50 x 5
##        x        y shape PANEL group
##  * <dbl>    <dbl> <fct> <int> <int>
##  1     2  -14243. B         1     2
##  2     4   53731. B         1     2
##  3     6  102864. B         1     2
##  4     8   13081. B         1     2
##  5    10  -44711. B         1     2
##  6    12   23840. B         1     2
##  7    14   75602. B         1     2
##  8    16  104677. B         1     2
##  9    18  -68747. B         1     2
## 10    20  -39230. B         1     2
## # ... with 40 more rows
…
If we use as geom "label" or "text" a debug summary is added to the plot itself, we can use other arguments valid for the geom used, in this case vjust.

ggplot(my.data, aes(x, y, shape = group)) + geom_point() + 
  stat_debug_group(geom = "label", vjust = c(-0.5,1.5))

## [1] "Input 'data' to 'compute_group()':"
## # A tibble: 50 x 5
##        x       y shape PANEL group
##  * <dbl>   <dbl> <fct> <int> <int>
##  1     1 -27205. A         1     1
##  2     3  45791. A         1     1
##  3     5  -8029. A         1     1
##  4     7 -18547. A         1     1
##  5     9  79924. A         1     1
##  6    11  -2824. A         1     1
##  7    13 -78017. A         1     1
##  8    15 -74281. A         1     1
##  9    17   9904. A         1     1
## 10    19 -94023. A         1     1
## # ... with 40 more rows
## [1] "Input 'data' to 'compute_group()':"
## # A tibble: 50 x 5
##        x        y shape PANEL group
##  * <dbl>    <dbl> <fct> <int> <int>
##  1     2  -14243. B         1     2
##  2     4   53731. B         1     2
##  3     6  102864. B         1     2
##  4     8   13081. B         1     2
##  5    10  -44711. B         1     2
##  6    12   23840. B         1     2
##  7    14   75602. B         1     2
##  8    16  104677. B         1     2
##  9    18  -68747. B         1     2
## 10    20  -39230. B         1     2
## # ... with 40 more rows
…
The default.

ggplot(my.data, aes(x, y)) + geom_point() + 
  stat_debug_group(summary.fun = as_tibble)

## [1] "Input 'data' to 'compute_group()':"
## # A tibble: 100 x 4
##        x        y PANEL group
##  * <dbl>    <dbl> <int> <int>
##  1     1  -27205.     1    -1
##  2     2  -14243.     1    -1
##  3     3   45791.     1    -1
##  4     4   53731.     1    -1
##  5     5   -8029.     1    -1
##  6     6  102864.     1    -1
##  7     7  -18547.     1    -1
##  8     8   13081.     1    -1
##  9     9   79924.     1    -1
## 10    10  -44711.     1    -1
## # ... with 90 more rows
…
And also to print to the console the data returned by a stat.

ggplot(my.data, aes(x, y, colour = group)) + geom_point() + 
  stat_smooth(method = "lm", geom = "debug")

## # A tibble: 160 x 8
##    colour      x        y     ymin     ymax     se PANEL group
##    <chr>   <dbl>    <dbl>    <dbl>    <dbl>  <dbl> <int> <int>
##  1 #F8766D  1    -188136. -254711. -121562. 33111.     1     1
##  2 #F8766D  2.24 -176933. -242260. -111606. 32491.     1     1
##  3 #F8766D  3.48 -165730. -229819. -101641. 31875.     1     1
##  4 #F8766D  4.72 -154527. -217387.  -91668. 31263.     1     1
##  5 #F8766D  5.96 -143324. -204964.  -81684. 30657.     1     1
##  6 #F8766D  7.20 -132121. -192552.  -71691. 30055.     1     1
##  7 #F8766D  8.44 -120918. -180150.  -61686. 29459.     1     1
##  8 #F8766D  9.68 -109715. -167760.  -51670. 28869.     1     1
##  9 #F8766D 10.9   -98512. -155383.  -41642. 28285.     1     1
## 10 #F8766D 12.2   -87309. -143019.  -31600. 27707.     1     1
## # ... with 150 more rows
…
formula <- y ~ x + I(x^2) + I(x^3)
ggplot(my.data, aes(x, y)) +
  geom_point() +
  stat_fit_augment(method = "lm", 
                   method.args = list(formula = formula),
                   geom = "debug") +
  stat_fit_augment(method = "lm", 
                   method.args = list(formula = formula),
                   geom = "smooth")

## # A tibble: 100 x 17
##       ymin   ymax      y     x I.x.2. I.x.3. .fitted .se.fit   .resid
##      <dbl>  <dbl>  <dbl> <dbl>  <dbl>  <dbl>   <dbl>   <dbl>    <dbl>
##  1 -48698. 41315. -3692.     1      1      1  -3692.  22673.  -23514.
##  2 -44308. 39151. -2579.     2      4      8  -2579.  21023.  -11664.
##  3 -40182. 37185. -1499.     3      9     27  -1499.  19488.   47289.
##  4 -36314. 35426.  -444.     4     16     64   -444.  18071.   54175.
##  5 -32701. 33885.   592.     5     25    125    592.  16772.   -8621.
##  6 -29339. 32571.  1616.     6     36    216   1616.  15594.  101248.
##  7 -26223. 31493.  2635.     7     49    343   2635.  14538.  -21182.
##  8 -23349. 30659.  3655.     8     64    512   3655.  13604.    9425.
##  9 -20709. 30077.  4684.     9     81    729   4684.  12792.   75240.
## 10 -18293. 29749.  5728.    10    100   1000   5728.  12101.  -50440.
## # ... with 90 more rows, and 8 more variables: .hat <dbl>, .sigma <dbl>,
## #   .cooksd <dbl>, .std.resid <dbl>, y.observed <dbl>, t.value <dbl>,
## #   PANEL <int>, group <int>
…
formula <- y ~ x + I(x^2) + I(x^3)
ggplot(my.data, aes(x, y2, colour = group)) +
  geom_point() +
  stat_fit_augment(method = "lm", 
                   method.args = list(formula = formula),
                   geom = "debug") +
  stat_fit_augment(method = "lm", 
                   method.args = list(formula = formula),
                   geom = "smooth")

## # A tibble: 100 x 19
##    colour     ymin   ymax .rownames       y     x I.x.2. I.x.3. .fitted
##    <chr>     <dbl>  <dbl> <chr>       <dbl> <dbl>  <dbl>  <dbl>   <dbl>
##  1 #F8766D -41080. 20399. 1         -10340.     1      1      1 -10340.
##  2 #F8766D -35274. 17555. 3          -8860.     3      9     27  -8860.
##  3 #F8766D -30156. 15353. 5          -7402.     5     25    125  -7402.
##  4 #F8766D -25720. 13833. 7          -5943.     7     49    343  -5943.
##  5 #F8766D -21946. 13026. 9          -4460.     9     81    729  -4460.
##  6 #F8766D -18794. 12937. 11         -2928.    11    121   1331  -2928.
##  7 #F8766D -16176. 13528. 13         -1324.    13    169   2197  -1324.
##  8 #F8766D -13958. 14712. 15           377.    15    225   3375    377.
##  9 #F8766D -11979. 16376. 17          2199.    17    289   4913   2199.
## 10 #F8766D -10073. 18403. 19          4165.    19    361   6859   4165.
## # ... with 90 more rows, and 10 more variables: .se.fit <dbl>,
## #   .resid <dbl>, .hat <dbl>, .sigma <dbl>, .cooksd <dbl>,
## #   .std.resid <dbl>, y.observed <dbl>, t.value <dbl>, PANEL <int>,
## #   group <int>
…
